<html>
<head>
<title>dummy title</title>
</head>
<body bgcolor="white">
<a name="1">[1]</a> <a href="#1" id=1><html></a>
<a name="2">[2]</a> <a href="#2" id=2><head></a>
<a name="3">[3]</a> <a href="#3" id=3><title>dummy title</title></a>
<a name="4">[4]</a> <a href="#4" id=4></head></a>
<a name="5">[5]</a> <a href="#5" id=5><body bgcolor="white"></a>
<a name="6">[6]</a> <a href="#6" id=6><a name="1">[1]</a> <a href="#1" id=1><html></a></a>
<a name="7">[7]</a> <a href="#7" id=7><a name="2">[2]</a> <a href="#2" id=2><head></a></a>
<a name="8">[8]</a> <a href="#8" id=8><a name="3">[3]</a> <a href="#3" id=3><title>dummy title</title></a></a>
<a name="9">[9]</a> <a href="#9" id=9><a name="4">[4]</a> <a href="#4" id=4></head></a></a>
<a name="10">[10]</a> <a href="#10" id=10><a name="5">[5]</a> <a href="#5" id=5><body bgcolor="white"></a></a>
<a name="11">[11]</a> <a href="#11" id=11><a name="6">[6]</a> <a href="#6" id=6><a name="1">[1]</a> <a href="#1" id=1>As decisões relativas à venda de armas para o Irã e ao envio de capital para os contras da Nicarágua passaram por McFarlane, daí o tom confessional do livro.</a></a></a>
<a name="12">[12]</a> <a href="#12" id=12><a name="7">[7]</a> <a href="#7" id=7><a name="2">[2]</a> <a href="#2" id=2>O autor faz mea-culpa ao mesmo tempo em que aponta todos os outros personagens do escândalo, que conseguiram se desvencilhar de provas cabais da sua participação no caso, como o seu assessor direto Oliver North e o próprio presidente Ronald Reagan.</a></a></a>
<a name="13">[13]</a> <a href="#13" id=13><a name="8">[8]</a> <a href="#8" id=8><a name="3">[3]</a> <a href="#3" id=3>No mais, o livro é um apanhado de memórias que não provocam exatamente orgulho do cidadão McFarlane.</a></a></a>
<a name="14">[14]</a> <a href="#14" id=14><a name="9">[9]</a> <a href="#9" id=9><a name="4">[4]</a> <a href="#4" id=4>A grande falha de McFarlane é que ele não convence de que não deve ser incluído nesta lista.</a></a></a>
<a name="15">[15]</a> <a href="#15" id=15><a name="10">[10]</a> <a href="#10" id=10><a name="5">[5]</a> <a href="#5" id=5>O dado mais interessante de "Special Trust" talvez seja o fato de o livro trazer mais um relato dos bastidores do poder na gestão Reagan -claro que não isento.</a></a></a>
<a name="16">[16]</a> <a href="#16" id=16><a name="11">[11]</a> <a href="#11" id=11><a name="6">[6]</a> <a href="#6" id=6>McFarlane deixa claro, no entanto, que apesar da aprovação de todos os conselheiros de Reagan, fora de sua presença, apenas duas pessoas se opuseram à venda de armas ao Irã e o desvio do capital aos contras: o secretário de Estado George Shultz e o secretário de Defesa Caspar Weinberger.</a></a></a>
<a name="17">[17]</a> <a href="#17" id=17><a name="12">[12]</a> <a href="#12" id=12><a name="7">[7]</a> <a href="#7" id=7></a></a></a>
<a name="18">[18]</a> <a href="#18" id=18><a name="13">[13]</a> <a href="#13" id=13></body></a></a>
<a name="19">[19]</a> <a href="#19" id=19><a name="14">[14]</a> <a href="#14" id=14></html></a></a>
<a name="20">[20]</a> <a href="#20" id=20></body></a>
<a name="21">[21]</a> <a href="#21" id=21></html></a>
</body>
</html>