<html>
<head>
<title>dummy title</title>
</head>
<body bgcolor="white">
<a name="1">[1]</a> <a href="#1" id=1><html></a>
<a name="2">[2]</a> <a href="#2" id=2><head></a>
<a name="3">[3]</a> <a href="#3" id=3><title>dummy title</title></a>
<a name="4">[4]</a> <a href="#4" id=4></head></a>
<a name="5">[5]</a> <a href="#5" id=5><body bgcolor="white"></a>
<a name="6">[6]</a> <a href="#6" id=6><a name="1">[1]</a> <a href="#1" id=1><html></a></a>
<a name="7">[7]</a> <a href="#7" id=7><a name="2">[2]</a> <a href="#2" id=2><head></a></a>
<a name="8">[8]</a> <a href="#8" id=8><a name="3">[3]</a> <a href="#3" id=3><title>dummy title</title></a></a>
<a name="9">[9]</a> <a href="#9" id=9><a name="4">[4]</a> <a href="#4" id=4></head></a></a>
<a name="10">[10]</a> <a href="#10" id=10><a name="5">[5]</a> <a href="#5" id=5><body bgcolor="white"></a></a>
<a name="11">[11]</a> <a href="#11" id=11><a name="6">[6]</a> <a href="#6" id=6><a name="1">[1]</a> <a href="#1" id=1>Uma legião que varia entre 30 e 35 milhões de fiéis brasileiros acredita que o juízo final, ou o dia do apocalipse, pode acontecer entre hoje e o ano 2000.</a></a></a>
<a name="12">[12]</a> <a href="#12" id=12><a name="7">[7]</a> <a href="#7" id=7><a name="2">[2]</a> <a href="#2" id=2>Os apocalípticos são compostos por uma horda de fiéis intitulada "evangélicos", que inclui membros de igrejas como a Presbiteriana, Batista, Metodista, Assembléia de Deus, Deus é Amor e Universal do Reino de Deus.</a></a></a>
<a name="13">[13]</a> <a href="#13" id=13><a name="8">[8]</a> <a href="#8" id=8><a name="3">[3]</a> <a href="#3" id=3>"Em 1994, apenas uma igreja marcou data para o fim do mundo.</a></a></a>
<a name="14">[14]</a> <a href="#14" id=14><a name="9">[9]</a> <a href="#9" id=9><a name="4">[4]</a> <a href="#4" id=4>E alguns desses dissidentes do catolicismo, atormentados pelo fantasma do juízo final, saem para as ruas pregando o fim do mundo -sem abrir mão dos cânones católicos mas também sem aceitar integralmente a idéia das religiões adventistas.</a></a></a>
<a name="15">[15]</a> <a href="#15" id=15><a name="10">[10]</a> <a href="#10" id=10><a name="5">[5]</a> <a href="#5" id=5>É o caso de Maria de Lourdes Batistella, 45, que há cinco anos "torra" sua existência no centro de São Paulo alertando os pedestres como sobre se salvar dos pecados.</a></a></a>
<a name="16">[16]</a> <a href="#16" id=16><a name="11">[11]</a> <a href="#11" id=11><a name="6">[6]</a> <a href="#6" id=6>"Agora eles vêm dizendo que a maioria dessas vagas já foi preenchida e que só vai haver lugar mesmo é para 8.000 pessoas.</a></a></a>
<a name="17">[17]</a> <a href="#17" id=17><a name="12">[12]</a> <a href="#12" id=12><a name="7">[7]</a> <a href="#7" id=7>"Cada seita diz que essa luz virá numa data e, com esse tipo de ameaça, conseguem extorquir dinheiro de seus fiéis, que se sentem ameaçados.</a></a></a>
<a name="18">[18]</a> <a href="#18" id=18><a name="13">[13]</a> <a href="#13" id=13><a name="8">[8]</a> <a href="#8" id=8>Trata-se da seita Family Radio, dos EUA, comandada por Harold Camping, um pastor da Califórnia.</a></a></a>
<a name="19">[19]</a> <a href="#19" id=19><a name="14">[14]</a> <a href="#14" id=14><a name="9">[9]</a> <a href="#9" id=9>No início do ano, ele enviou ao Brasil 50 discípulos que se hospedaram no Othon Palace Hotel, em São Paulo.</a></a></a>
<a name="20">[20]</a> <a href="#20" id=20><a name="15">[15]</a> <a href="#15" id=15><a name="10">[10]</a> <a href="#10" id=10></a></a></a>
<a name="21">[21]</a> <a href="#21" id=21><a name="16">[16]</a> <a href="#16" id=16></body></a></a>
<a name="22">[22]</a> <a href="#22" id=22><a name="17">[17]</a> <a href="#17" id=17></html></a></a>
<a name="23">[23]</a> <a href="#23" id=23></body></a>
<a name="24">[24]</a> <a href="#24" id=24></html></a>
</body>
</html>