<html>
<head>
<title>dummy title</title>
</head>
<body bgcolor="white">
<a name="1">[1]</a> <a href="#1" id=1><html></a>
<a name="2">[2]</a> <a href="#2" id=2><head></a>
<a name="3">[3]</a> <a href="#3" id=3><title>dummy title</title></a>
<a name="4">[4]</a> <a href="#4" id=4></head></a>
<a name="5">[5]</a> <a href="#5" id=5><body bgcolor="white"></a>
<a name="6">[6]</a> <a href="#6" id=6><a name="1">[1]</a> <a href="#1" id=1><html></a></a>
<a name="7">[7]</a> <a href="#7" id=7><a name="2">[2]</a> <a href="#2" id=2><head></a></a>
<a name="8">[8]</a> <a href="#8" id=8><a name="3">[3]</a> <a href="#3" id=3><title>dummy title</title></a></a>
<a name="9">[9]</a> <a href="#9" id=9><a name="4">[4]</a> <a href="#4" id=4></head></a></a>
<a name="10">[10]</a> <a href="#10" id=10><a name="5">[5]</a> <a href="#5" id=5><body bgcolor="white"></a></a>
<a name="11">[11]</a> <a href="#11" id=11><a name="6">[6]</a> <a href="#6" id=6><a name="1">[1]</a> <a href="#1" id=1>Ainda assim, o acordo ratificado anteontem pelos membros do Mercosul, que cria um espaço econômico de 200 milhões de habitantes e um produto total de quase US$ 800 bilhões, constitui um marco histórico para as economias envolvidas e aponta para um processo ainda mais profundo de integração.</a></a></a>
<a name="12">[12]</a> <a href="#12" id=12><a name="7">[7]</a> <a href="#7" id=7><a name="2">[2]</a> <a href="#2" id=2>Isso significa, não só que mercadorias poderão circular no Mercosul sem taxas alfandegárias, como também que produtos importados de outros países terão, em tese, tarifas iguais para todo o bloco.</a></a></a>
<a name="13">[13]</a> <a href="#13" id=13><a name="8">[8]</a> <a href="#8" id=8><a name="3">[3]</a> <a href="#3" id=3>Essa tarifa externa comum (TEC) variará dentro da faixa de 0 a 20%.</a></a></a>
<a name="14">[14]</a> <a href="#14" id=14><a name="9">[9]</a> <a href="#9" id=9><a name="4">[4]</a> <a href="#4" id=4>Cada país poderá, por exemplo, manter tarifas diferenciadas para até 300 produtos, ou 399 no caso do Paraguai.</a></a></a>
<a name="15">[15]</a> <a href="#15" id=15><a name="10">[10]</a> <a href="#10" id=10><a name="5">[5]</a> <a href="#5" id=5>E há ainda diversas exceções.</a></a></a>
<a name="16">[16]</a> <a href="#16" id=16><a name="11">[11]</a> <a href="#11" id=11><a name="6">[6]</a> <a href="#6" id=6>Afinal, apesar de tudo, é inegável que é na inserção nos grandes fluxos da economia mundial que os países membros, e o Brasil especificamente, mais têm a ganhar.</a></a></a>
<a name="17">[17]</a> <a href="#17" id=17><a name="12">[12]</a> <a href="#12" id=12><a name="7">[7]</a> <a href="#7" id=7>Uma importante mostra de realismo foi dada pelos participantes da cúpula ao ressaltar a importância de buscar acordos do Mercosul com a União Européia e, posteriormente, com o Nafta.</a></a></a>
<a name="18">[18]</a> <a href="#18" id=18><a name="13">[13]</a> <a href="#13" id=13><a name="8">[8]</a> <a href="#8" id=8>Mesmo o Mercosul como um todo, porém, de 4,1% de 1990 passou a absorver hoje 14% das vendas brasileiras ao exterior, tanto quanto todo o continente asiático.</a></a></a>
<a name="19">[19]</a> <a href="#19" id=19><a name="14">[14]</a> <a href="#14" id=14><a name="9">[9]</a> <a href="#9" id=9>A cúpula de Buenos Aires deixou claro também que o projeto regional vai além de uma união aduaneira.</a></a></a>
<a name="20">[20]</a> <a href="#20" id=20><a name="15">[15]</a> <a href="#15" id=15><a name="10">[10]</a> <a href="#10" id=10>Sinalizando que esperam caminhar no futuro rumo a um mercado comum em que, além de mercadorias, também pessoas, capitais e serviços circulam livremente os países membros concluíram acordo reconhecendo mutuamente diplomas escolares de primeiro e segundo graus.</a></a></a>
<a name="21">[21]</a> <a href="#21" id=21><a name="16">[16]</a> <a href="#16" id=16><a name="11">[11]</a> <a href="#11" id=11>Sem dúvida não se compara com os números anunciados ao mundo com a criação do Nafta nem com aqueles que se tornaram corriqueiros com os avanços da União Européia.</a></a></a>
<a name="22">[22]</a> <a href="#22" id=22><a name="17">[17]</a> <a href="#17" id=17><a name="12">[12]</a> <a href="#12" id=12></a></a></a>
<a name="23">[23]</a> <a href="#23" id=23><a name="18">[18]</a> <a href="#18" id=18></body></a></a>
<a name="24">[24]</a> <a href="#24" id=24><a name="19">[19]</a> <a href="#19" id=19></html></a></a>
<a name="25">[25]</a> <a href="#25" id=25></body></a>
<a name="26">[26]</a> <a href="#26" id=26></html></a>
</body>
</html>