<html>
<head>
<title>dummy title</title>
</head>
<body bgcolor="white">
<a name="1">[1]</a> <a href="#1" id=1><html></a>
<a name="2">[2]</a> <a href="#2" id=2><head></a>
<a name="3">[3]</a> <a href="#3" id=3><title>dummy title</title></a>
<a name="4">[4]</a> <a href="#4" id=4></head></a>
<a name="5">[5]</a> <a href="#5" id=5><body bgcolor="white"></a>
<a name="6">[6]</a> <a href="#6" id=6><a name="1">[1]</a> <a href="#1" id=1><html></a></a>
<a name="7">[7]</a> <a href="#7" id=7><a name="2">[2]</a> <a href="#2" id=2><head></a></a>
<a name="8">[8]</a> <a href="#8" id=8><a name="3">[3]</a> <a href="#3" id=3><title>dummy title</title></a></a>
<a name="9">[9]</a> <a href="#9" id=9><a name="4">[4]</a> <a href="#4" id=4></head></a></a>
<a name="10">[10]</a> <a href="#10" id=10><a name="5">[5]</a> <a href="#5" id=5><body bgcolor="white"></a></a>
<a name="11">[11]</a> <a href="#11" id=11><a name="6">[6]</a> <a href="#6" id=6><a name="1">[1]</a> <a href="#1" id=1>Desde 1986 nos convencemos de que era impossível construir uma Constituição razoável a partir de um corpo eleito para fazer, simultaneamente, duas coisas: a legislação ordinária e a Constituição.</a></a></a>
<a name="12">[12]</a> <a href="#12" id=12><a name="7">[7]</a> <a href="#7" id=7><a name="2">[2]</a> <a href="#2" id=2>O constituinte tem que ser eleito para um fim específico.</a></a></a>
<a name="13">[13]</a> <a href="#13" id=13><a name="8">[8]</a> <a href="#8" id=8><a name="3">[3]</a> <a href="#3" id=3>Tem que ter experiência provada e imaginação alerta para os problemas da sua região e do país.</a></a></a>
<a name="14">[14]</a> <a href="#14" id=14><a name="9">[9]</a> <a href="#9" id=9><a name="4">[4]</a> <a href="#4" id=4>Um superficial passeio pela Constituição de 1988 vai revelar dois aspectos interessantes: 1) ela é a Constituição da "vingança" tudo o que existia no regime autoritário era ruim por definição e não merecia a menor reflexão e 2) todos os privilégios privatizados (as estatais, a Zona Franca de Manaus, as vinculações etc.) conseguidos alguns no próprio regime autoritário foram constitucionalizados!</a></a></a>
<a name="15">[15]</a> <a href="#15" id=15><a name="10">[10]</a> <a href="#10" id=10><a name="5">[5]</a> <a href="#5" id=5>Havia ligeiras esperanças de que isso poderia ser corrigido por um dos poucos dispositivos lúcidos, o artigo 3 das Disposições Transitórias, que permite que após cinco anos a revisão da Constituição.</a></a></a>
<a name="16">[16]</a> <a href="#16" id=16><a name="11">[11]</a> <a href="#11" id=11><a name="6">[6]</a> <a href="#6" id=6>Hoje não nos resta outra alternativa senão lutar por uma Constituinte exclusiva, construída na base rigorosa de "um homem um voto" (com o mínimo de um para os Estados que não atinjam o quociente eleitoral) e que não tenha mais do que 100 representantes escolhidos diretamente pelo povo.</a></a></a>
<a name="17">[17]</a> <a href="#17" id=17><a name="12">[12]</a> <a href="#12" id=12><a name="7">[7]</a> <a href="#7" id=7></a></a></a>
<a name="18">[18]</a> <a href="#18" id=18><a name="13">[13]</a> <a href="#13" id=13></body></a></a>
<a name="19">[19]</a> <a href="#19" id=19><a name="14">[14]</a> <a href="#14" id=14></html></a></a>
<a name="20">[20]</a> <a href="#20" id=20></body></a>
<a name="21">[21]</a> <a href="#21" id=21></html></a>
</body>
</html>