<html>
<head>
<title>dummy title</title>
</head>
<body bgcolor="white">
<a name="1">[1]</a> <a href="#1" id=1><html></a>
<a name="2">[2]</a> <a href="#2" id=2><head></a>
<a name="3">[3]</a> <a href="#3" id=3><title>dummy title</title></a>
<a name="4">[4]</a> <a href="#4" id=4></head></a>
<a name="5">[5]</a> <a href="#5" id=5><body bgcolor="white"></a>
<a name="6">[6]</a> <a href="#6" id=6><a name="1">[1]</a> <a href="#1" id=1><html></a></a>
<a name="7">[7]</a> <a href="#7" id=7><a name="2">[2]</a> <a href="#2" id=2><head></a></a>
<a name="8">[8]</a> <a href="#8" id=8><a name="3">[3]</a> <a href="#3" id=3><title>dummy title</title></a></a>
<a name="9">[9]</a> <a href="#9" id=9><a name="4">[4]</a> <a href="#4" id=4></head></a></a>
<a name="10">[10]</a> <a href="#10" id=10><a name="5">[5]</a> <a href="#5" id=5><body bgcolor="white"></a></a>
<a name="11">[11]</a> <a href="#11" id=11><a name="6">[6]</a> <a href="#6" id=6><a name="1">[1]</a> <a href="#1" id=1>A enchente responsável pela morte de 67 pessoas levou o governador do Rio de Janeiro, Marcello Alencar, a ser reprovado por 86% dos cariocas. Passados dois meses, já obteve 54% de avaliação positiva. </a></a></a>
<a name="12">[12]</a> <a href="#12" id=12><a name="7">[7]</a> <a href="#7" id=7><a name="2">[2]</a> <a href="#2" id=2></a></a></a>
<a name="13">[13]</a> <a href="#13" id=13><a name="8">[8]</a> <a href="#8" id=8><a name="3">[3]</a> <a href="#3" id=3>É uma recuperação, mas que ainda convive com 18% de péssimo contra só 4% de ótimo. </a></a></a>
<a name="14">[14]</a> <a href="#14" id=14><a name="9">[9]</a> <a href="#9" id=9><a name="4">[4]</a> <a href="#4" id=4></a></a></a>
<a name="15">[15]</a> <a href="#15" id=15><a name="10">[10]</a> <a href="#10" id=10><a name="5">[5]</a> <a href="#5" id=5>O diretor do Vox Populi , Marcos Coimbra, alerta para o fato de ser comum essa maior exigência nas capitais , com ênfase na cidade do Rio de Janeiro. </a></a></a>
<a name="16">[16]</a> <a href="#16" id=16><a name="11">[11]</a> <a href="#11" id=11><a name="6">[6]</a> <a href="#6" id=6></a></a></a>
<a name="17">[17]</a> <a href="#17" id=17><a name="12">[12]</a> <a href="#12" id=12><a name="7">[7]</a> <a href="#7" id=7>O mesmo carioca que foi decisivo para lhe dar a vitória no segundo turno (56% contra 32% de Garotinho) foi intransigente depois da tragédia das chuvas. </a></a></a>
<a name="18">[18]</a> <a href="#18" id=18><a name="13">[13]</a> <a href="#13" id=13><a name="8">[8]</a> <a href="#8" id=8></a></a></a>
<a name="19">[19]</a> <a href="#19" id=19><a name="14">[14]</a> <a href="#14" id=14><a name="9">[9]</a> <a href="#9" id=9>No início de 1995, Alencar conseguiu do presidente Fernando Henrique promessa para investimentos no Rio:  ampliação do Porto de Sepetiba e conclusão do metrô. Também trouxe a primeira fábrica de caminhões da Volkswagen , o que ampliou seu prestígio com a população. Mas logo a onda de seqüestros  motivou a cobrança de uma polícia eficiente e menos corrupta. </a></a></a>
<a name="20">[20]</a> <a href="#20" id=20><a name="15">[15]</a> <a href="#15" id=15><a name="10">[10]</a> <a href="#10" id=10></a></a></a>
<a name="21">[21]</a> <a href="#21" id=21><a name="16">[16]</a> <a href="#16" id=16><a name="11">[11]</a> <a href="#11" id=11>Em comparação com outros governadores tucanos, equilibra-se: 54% , contra 76% de Tasso Jereissati, 70% de Eduardo Azeredo . Mas cima de Covas , que teve 47%.</a></a></a>
<a name="22">[22]</a> <a href="#22" id=22><a name="17">[17]</a> <a href="#17" id=17></body></a></a>
<a name="23">[23]</a> <a href="#23" id=23><a name="18">[18]</a> <a href="#18" id=18></html></a></a>
<a name="24">[24]</a> <a href="#24" id=24></body></a>
<a name="25">[25]</a> <a href="#25" id=25></html></a>
</body>
</html>