<html>
<head>
<title>dummy title</title>
</head>
<body bgcolor="white">
<a name="1">[1]</a> <a href="#1" id=1><html></a>
<a name="2">[2]</a> <a href="#2" id=2><head></a>
<a name="3">[3]</a> <a href="#3" id=3><title>dummy title</title></a>
<a name="4">[4]</a> <a href="#4" id=4></head></a>
<a name="5">[5]</a> <a href="#5" id=5><body bgcolor="white"></a>
<a name="6">[6]</a> <a href="#6" id=6><a name="1">[1]</a> <a href="#1" id=1><html></a></a>
<a name="7">[7]</a> <a href="#7" id=7><a name="2">[2]</a> <a href="#2" id=2><head></a></a>
<a name="8">[8]</a> <a href="#8" id=8><a name="3">[3]</a> <a href="#3" id=3><title>dummy title</title></a></a>
<a name="9">[9]</a> <a href="#9" id=9><a name="4">[4]</a> <a href="#4" id=4></head></a></a>
<a name="10">[10]</a> <a href="#10" id=10><a name="5">[5]</a> <a href="#5" id=5><body bgcolor="white"></a></a>
<a name="11">[11]</a> <a href="#11" id=11><a name="6">[6]</a> <a href="#6" id=6><a name="1">[1]</a> <a href="#1" id=1>Os casos de abusos e maus-tratos contra crianças nos Estados Unidos espantam pela quantidade e qualidade. Cerca de 3 milhões  em 1993, segundo um relatório entre ao Comitê Nacional de Prevenção do Abuso Infantil. </a></a></a>
<a name="12">[12]</a> <a href="#12" id=12><a name="7">[7]</a> <a href="#7" id=7><a name="2">[2]</a> <a href="#2" id=2></a></a></a>
<a name="13">[13]</a> <a href="#13" id=13><a name="8">[8]</a> <a href="#8" id=8><a name="3">[3]</a> <a href="#3" id=3>Em maio do ano passado, em Kentucky , assistentes sociais descobriram hematomas num garotinho. Em junho, médicos  notaram que ele estava com a perna quebrada e que parecia ter sido torcida até quebrar. Em dezembro , segundo a polícia e promotores , ele morreu de um soco na cabeça.</a></a></a>
<a name="14">[14]</a> <a href="#14" id=14><a name="9">[9]</a> <a href="#9" id=9><a name="4">[4]</a> <a href="#4" id=4></a></a></a>
<a name="15">[15]</a> <a href="#15" id=15><a name="10">[10]</a> <a href="#10" id=10><a name="5">[5]</a> <a href="#5" id=5>Muitos casos poderiam ter sido evitados. Muitos foram tiradas dos pais, mas depois devolvidas. O ambiente de pobreza , de dependência de drogas e de abusos dos próprios pais potencializa as ocorrências .Também organizações com financiamento insuficiente mantêm funcionários com excesso de trabalho  , e o resultado é previsível. </a></a></a>
<a name="16">[16]</a> <a href="#16" id=16><a name="11">[11]</a> <a href="#11" id=11><a name="6">[6]</a> <a href="#6" id=6></a></a></a>
<a name="17">[17]</a> <a href="#17" id=17><a name="12">[12]</a> <a href="#12" id=12><a name="7">[7]</a> <a href="#7" id=7>Estatísticas mais recentes  sobre abuso infantil talvez não reflitam nem 50% dos casos. Desde um estudo de 1962, quando se identificou a Síndrome da Criança Espancada, os critérios de combate a abusos se modificaram várias vezes. De início, retirava-se a criança da família; depois , advogados e grupos de defesa contestaram; em seguida, passou-se a defender o direito dos pais , sempre que possível. </a></a></a>
<a name="18">[18]</a> <a href="#18" id=18><a name="13">[13]</a> <a href="#13" id=13><a name="8">[8]</a> <a href="#8" id=8></a></a></a>
<a name="19">[19]</a> <a href="#19" id=19><a name="14">[14]</a> <a href="#14" id=14><a name="9">[9]</a> <a href="#9" id=9>Enquanto isso, o público continua a assistir a casos escabrosos e se revoltar . </a></a></a>
<a name="20">[20]</a> <a href="#20" id=20><a name="15">[15]</a> <a href="#15" id=15></body></a></a>
<a name="21">[21]</a> <a href="#21" id=21><a name="16">[16]</a> <a href="#16" id=16></html></a></a>
<a name="22">[22]</a> <a href="#22" id=22></body></a>
<a name="23">[23]</a> <a href="#23" id=23></html></a>
</body>
</html>