<html>
<head>
<title>dummy title</title>
</head>
<body bgcolor="white">
<a name="1">[1]</a> <a href="#1" id=1><html></a>
<a name="2">[2]</a> <a href="#2" id=2><head></a>
<a name="3">[3]</a> <a href="#3" id=3><title>dummy title</title></a>
<a name="4">[4]</a> <a href="#4" id=4></head></a>
<a name="5">[5]</a> <a href="#5" id=5><body bgcolor="white"></a>
<a name="6">[6]</a> <a href="#6" id=6><a name="1">[1]</a> <a href="#1" id=1><html></a></a>
<a name="7">[7]</a> <a href="#7" id=7><a name="2">[2]</a> <a href="#2" id=2><head></a></a>
<a name="8">[8]</a> <a href="#8" id=8><a name="3">[3]</a> <a href="#3" id=3><title>dummy title</title></a></a>
<a name="9">[9]</a> <a href="#9" id=9><a name="4">[4]</a> <a href="#4" id=4></head></a></a>
<a name="10">[10]</a> <a href="#10" id=10><a name="5">[5]</a> <a href="#5" id=5><body bgcolor="white"></a></a>
<a name="11">[11]</a> <a href="#11" id=11><a name="6">[6]</a> <a href="#6" id=6><a name="1">[1]</a> <a href="#1" id=1>Por causa da repercussão negativa da aposentadoria privilegiada dos parlamentares, o presidente da Câmara , Luís Eduardo Magalhães, decidiu que o IPC será extinto. E o seria por lei ordinária. Apesar do apoio de todos os líderes , há fortes resistências. </a></a></a>
<a name="12">[12]</a> <a href="#12" id=12><a name="7">[7]</a> <a href="#7" id=7><a name="2">[2]</a> <a href="#2" id=2></a></a></a>
<a name="13">[13]</a> <a href="#13" id=13><a name="8">[8]</a> <a href="#8" id=8><a name="3">[3]</a> <a href="#3" id=3>Os argumentos contra a extinção do Instituto de Aposentadoria foram vários : não é privilégio, pois existe em todos os países democráticos; é uma posição radical e precipitada; os deputados e os líderes estão com medo da imprensa; há vestais , que parecem contra , mas são favoráveis.</a></a></a>
<a name="14">[14]</a> <a href="#14" id=14><a name="9">[9]</a> <a href="#9" id=9><a name="4">[4]</a> <a href="#4" id=4></a></a></a>
<a name="15">[15]</a> <a href="#15" id=15><a name="10">[10]</a> <a href="#10" id=10><a name="5">[5]</a> <a href="#5" id=5>O presidente da Câmara irritou-se com a entrevista do relator Euler, em que dizia ter Michel Temer sofrido pressões de vários parlamentares. Convocou os líderes para uma reunião e, na avaliação deles, a polêmica prejudicaria a tramitação da reforma da Previdência. </a></a></a>
<a name="16">[16]</a> <a href="#16" id=16><a name="11">[11]</a> <a href="#11" id=11><a name="6">[6]</a> <a href="#6" id=6></a></a></a>
<a name="17">[17]</a> <a href="#17" id=17><a name="12">[12]</a> <a href="#12" id=12><a name="7">[7]</a> <a href="#7" id=7>Ainda mais que a posição  de Vicentinho, presidente da CUT, contrária ao IPC  poderia levar a central sindical a sair das negociações da reforma . </a></a></a>
<a name="18">[18]</a> <a href="#18" id=18><a name="13">[13]</a> <a href="#13" id=13><a name="8">[8]</a> <a href="#8" id=8></a></a></a>
<a name="19">[19]</a> <a href="#19" id=19><a name="14">[14]</a> <a href="#14" id=14><a name="9">[9]</a> <a href="#9" id=9>Três partidos - PT, PDT e PSDB-já se definiram contra o Instituto; O PFL e o PMDB vão consultar suas bases. Michel Temer, do PMDB, acha que não cabe às lideranças decidir, mas às bancadas. </a></a></a>
<a name="20">[20]</a> <a href="#20" id=20><a name="15">[15]</a> <a href="#15" id=15><a name="10">[10]</a> <a href="#10" id=10></a></a></a>
<a name="21">[21]</a> <a href="#21" id=21><a name="16">[16]</a> <a href="#16" id=16><a name="11">[11]</a> <a href="#11" id=11>A lei que propõe sua extinção prevê os direitos adquiridos. </a></a></a>
<a name="22">[22]</a> <a href="#22" id=22><a name="17">[17]</a> <a href="#17" id=17></body></a></a>
<a name="23">[23]</a> <a href="#23" id=23><a name="18">[18]</a> <a href="#18" id=18></html></a></a>
<a name="24">[24]</a> <a href="#24" id=24></body></a>
<a name="25">[25]</a> <a href="#25" id=25></html></a>
</body>
</html>