<html>
<head>
<title>dummy title</title>
</head>
<body bgcolor="white">
<a name="1">[1]</a> <a href="#1" id=1><html></a>
<a name="2">[2]</a> <a href="#2" id=2><head></a>
<a name="3">[3]</a> <a href="#3" id=3><title>dummy title</title></a>
<a name="4">[4]</a> <a href="#4" id=4></head></a>
<a name="5">[5]</a> <a href="#5" id=5><body bgcolor="white"></a>
<a name="6">[6]</a> <a href="#6" id=6><a name="1">[1]</a> <a href="#1" id=1><html></a></a>
<a name="7">[7]</a> <a href="#7" id=7><a name="2">[2]</a> <a href="#2" id=2><head></a></a>
<a name="8">[8]</a> <a href="#8" id=8><a name="3">[3]</a> <a href="#3" id=3><title>dummy title</title></a></a>
<a name="9">[9]</a> <a href="#9" id=9><a name="4">[4]</a> <a href="#4" id=4></head></a></a>
<a name="10">[10]</a> <a href="#10" id=10><a name="5">[5]</a> <a href="#5" id=5><body bgcolor="white"></a></a>
<a name="11">[11]</a> <a href="#11" id=11><a name="6">[6]</a> <a href="#6" id=6><a name="1">[1]</a> <a href="#1" id=1>Presidentes e primeiros-ministros de 34 países do hemisfério ocidental se reunirão em Miami para discutir temas ligados a comércio, democracia e desenvolvimento sustentado, com vistas a implantar a Afta até 2006. </a></a></a>
<a name="12">[12]</a> <a href="#12" id=12><a name="7">[7]</a> <a href="#7" id=7><a name="2">[2]</a> <a href="#2" id=2></a></a></a>
<a name="13">[13]</a> <a href="#13" id=13><a name="8">[8]</a> <a href="#8" id=8><a name="3">[3]</a> <a href="#3" id=3>É a terceira reunião de cúpula  de lideranças do continente , da qual só não participa Cuba, que não foi convidada pelos EUA , sob o pretexto de seu presidente não ter sido eleito . Apesar disso, a questão cubana  estará presente , na forma de uma passeata em Miami de 300 mil cubanos e seus descendentes, e  na fala do presidente argentino, Carlos Menem. </a></a></a>
<a name="14">[14]</a> <a href="#14" id=14><a name="9">[9]</a> <a href="#9" id=9><a name="4">[4]</a> <a href="#4" id=4></a></a></a>
<a name="15">[15]</a> <a href="#15" id=15><a name="10">[10]</a> <a href="#10" id=10><a name="5">[5]</a> <a href="#5" id=5>A idéia de reunião  de Cúpula das Américas foi do vice norte-americano, Al Gore, e estaria fadada a um exercício diplomático, pois a questão comercial não foi inicialmente colocada em pauta. A pressão dos países da América Latina obrigou a inclusão do tema. </a></a></a>
<a name="16">[16]</a> <a href="#16" id=16><a name="11">[11]</a> <a href="#11" id=11><a name="6">[6]</a> <a href="#6" id=6></a></a></a>
<a name="17">[17]</a> <a href="#17" id=17><a name="12">[12]</a> <a href="#12" id=12><a name="7">[7]</a> <a href="#7" id=7>Entre as decisões a serem deliberadas , constam : um esforço regional para eliminar o analfabetismo; incentivo a empresas privadas para subsidiar assistência médica básica , principalmente para crianças; intercâmbio multinacional para exploração de recursos biológicos; combate ao narcotráfico, à lavagem de dinheiro; prevenção da poluição. </a></a></a>
<a name="18">[18]</a> <a href="#18" id=18><a name="13">[13]</a> <a href="#13" id=13><a name="8">[8]</a> <a href="#8" id=8></a></a></a>
<a name="19">[19]</a> <a href="#19" id=19><a name="14">[14]</a> <a href="#14" id=14><a name="9">[9]</a> <a href="#9" id=9>Haverá um simpósio coordenado pela primeira-dama Hillary Clinton , que tratará da situação das crianças nas Américas, com a presença das primeiras-damas do continente. </a></a></a>
<a name="20">[20]</a> <a href="#20" id=20><a name="15">[15]</a> <a href="#15" id=15><a name="10">[10]</a> <a href="#10" id=10></a></a></a>
<a name="21">[21]</a> <a href="#21" id=21><a name="16">[16]</a> <a href="#16" id=16><a name="11">[11]</a> <a href="#11" id=11>Cinco mil jornalistas credenciados cobrirão o evento. </a></a></a>
<a name="22">[22]</a> <a href="#22" id=22><a name="17">[17]</a> <a href="#17" id=17><a name="12">[12]</a> <a href="#12" id=12></a></a></a>
<a name="23">[23]</a> <a href="#23" id=23><a name="18">[18]</a> <a href="#18" id=18><a name="13">[13]</a> <a href="#13" id=13></a></a></a>
<a name="24">[24]</a> <a href="#24" id=24><a name="19">[19]</a> <a href="#19" id=19></body></a></a>
<a name="25">[25]</a> <a href="#25" id=25><a name="20">[20]</a> <a href="#20" id=20></html></a></a>
<a name="26">[26]</a> <a href="#26" id=26></body></a>
<a name="27">[27]</a> <a href="#27" id=27></html></a>
</body>
</html>