<html>
<head>
<title>dummy title</title>
</head>
<body bgcolor="white">
<a name="1">[1]</a> <a href="#1" id=1><html></a>
<a name="2">[2]</a> <a href="#2" id=2><head></a>
<a name="3">[3]</a> <a href="#3" id=3><title>dummy title</title></a>
<a name="4">[4]</a> <a href="#4" id=4></head></a>
<a name="5">[5]</a> <a href="#5" id=5><body bgcolor="white"></a>
<a name="6">[6]</a> <a href="#6" id=6><a name="1">[1]</a> <a href="#1" id=1><html></a></a>
<a name="7">[7]</a> <a href="#7" id=7><a name="2">[2]</a> <a href="#2" id=2><head></a></a>
<a name="8">[8]</a> <a href="#8" id=8><a name="3">[3]</a> <a href="#3" id=3><title>dummy title</title></a></a>
<a name="9">[9]</a> <a href="#9" id=9><a name="4">[4]</a> <a href="#4" id=4></head></a></a>
<a name="10">[10]</a> <a href="#10" id=10><a name="5">[5]</a> <a href="#5" id=5><body bgcolor="white"></a></a>
<a name="11">[11]</a> <a href="#11" id=11><a name="6">[6]</a> <a href="#6" id=6><a name="1">[1]</a> <a href="#1" id=1>A empresa Produtos Pirata Indústria e Comércio Ltda. ,  sediada em Contagem-MG , dona de 65% do mercado mineiro de temperos , espera este ano um crescimento de produtividade significativo nas áreas comercial e industrial. Segundo a diretoria, isso será resultado da adesão da empresa ao Programa Sebrae de Qualidade Total.</a></a></a>
<a name="12">[12]</a> <a href="#12" id=12><a name="7">[7]</a> <a href="#7" id=7><a name="2">[2]</a> <a href="#2" id=2></a></a></a>
<a name="13">[13]</a> <a href="#13" id=13><a name="8">[8]</a> <a href="#8" id=8><a name="3">[3]</a> <a href="#3" id=3>A coordenadora do programa de qualidade reconhece que  ainda não é possível calcular os inevitáveis ganhos financeiros , e que os benefícios mais palpáveis aparecem na organização e na limpeza da fábrica , além da melhoria da relação entre as pessoas e da  clareza  de informações , com resultados evidentes  na satisfação de funcionários e clientes. </a></a></a>
<a name="14">[14]</a> <a href="#14" id=14><a name="9">[9]</a> <a href="#9" id=9><a name="4">[4]</a> <a href="#4" id=4></a></a></a>
<a name="15">[15]</a> <a href="#15" id=15><a name="10">[10]</a> <a href="#10" id=10><a name="5">[5]</a> <a href="#5" id=5>A eliminação de desperdício , quer no refeitório da empresa, quer na linha de produção já é bastante significativo. </a></a></a>
<a name="16">[16]</a> <a href="#16" id=16><a name="11">[11]</a> <a href="#11" id=11><a name="6">[6]</a> <a href="#6" id=6></a></a></a>
<a name="17">[17]</a> <a href="#17" id=17><a name="12">[12]</a> <a href="#12" id=12><a name="7">[7]</a> <a href="#7" id=7>A expectativa de resultados imediatos, segundo a coordenadora, é um dos erros de empresários que adotam o programa. Até porque o investimento na educação e mudança de mentalidade do funcionário , apesar de rendoso, tem um prazo de gestação. E forçosamente deve haver , também, mudanças radicais nos membros da diretoria. </a></a></a>
<a name="18">[18]</a> <a href="#18" id=18><a name="13">[13]</a> <a href="#13" id=13><a name="8">[8]</a> <a href="#8" id=8></a></a></a>
<a name="19">[19]</a> <a href="#19" id=19><a name="14">[14]</a> <a href="#14" id=14><a name="9">[9]</a> <a href="#9" id=9>A maior participação dos funcionários na gestão da empresa torna-os mais exigentes , por exemplo, exigiram a implantação de algum tipo de lazer na hora do almoço. Apesar do custo, o retorno vem na satisfação deles, que trabalham melhor e produzem mais. Os resultados com a qualidade do produto só podem significar lucro. </a></a></a>
<a name="20">[20]</a> <a href="#20" id=20><a name="15">[15]</a> <a href="#15" id=15></body></a></a>
<a name="21">[21]</a> <a href="#21" id=21><a name="16">[16]</a> <a href="#16" id=16></html></a></a>
<a name="22">[22]</a> <a href="#22" id=22></body></a>
<a name="23">[23]</a> <a href="#23" id=23></html></a>
</body>
</html>