<html>
<head>
<title>dummy title</title>
</head>
<body bgcolor="white">
<a name="1">[1]</a> <a href="#1" id=1><html></a>
<a name="2">[2]</a> <a href="#2" id=2><head></a>
<a name="3">[3]</a> <a href="#3" id=3><title>dummy title</title></a>
<a name="4">[4]</a> <a href="#4" id=4></head></a>
<a name="5">[5]</a> <a href="#5" id=5><body bgcolor="white"></a>
<a name="6">[6]</a> <a href="#6" id=6><a name="1">[1]</a> <a href="#1" id=1><html></a></a>
<a name="7">[7]</a> <a href="#7" id=7><a name="2">[2]</a> <a href="#2" id=2><head></a></a>
<a name="8">[8]</a> <a href="#8" id=8><a name="3">[3]</a> <a href="#3" id=3><title>dummy title</title></a></a>
<a name="9">[9]</a> <a href="#9" id=9><a name="4">[4]</a> <a href="#4" id=4></head></a></a>
<a name="10">[10]</a> <a href="#10" id=10><a name="5">[5]</a> <a href="#5" id=5><body bgcolor="white"></a></a>
<a name="11">[11]</a> <a href="#11" id=11><a name="6">[6]</a> <a href="#6" id=6><a name="1">[1]</a> <a href="#1" id=1>GDANSK, POLÔNIA - Os estaleiros de Gdansk, no norte da Polônia, de que emergiram ao poder o Sindicato Solidariedade e seu primeiro líder, o ex-eletricista e ex-presidente Lech Walesa, não resistiram à maré capitalista. Protestos - Ainda assim o Solidariedade seria o motor das reformas democráticas na Polônia e, de algum modo, inspiração para a queda do socialismo em todo a Europa socialista no final da década. O ex-presidente prometeu apoiar as manifestações contra a falência dos estaleiros, que os operários - detentores de 40% das ações da empresa - prometem levar às ruas. "Diriam que é revanche. Mas, no lugar dos operários, lutaria pelos estaleiros. Naturalmente, com métodos pacíficos", disse Walesa, que acusou o governo de nada ter feito pela empresa. Ao decidir pela falência - com que condordaram 79% dos acionistas -, a junta alegou "falta de dinheiro para cobrir as perdas da companhia no último ano", estimadas em US$ 31,7 milhões. Ainda assim, nasce com os mesmos problemas da empresa que faliu: depende de que bancos financiem a construção dos navios e cubram as eventuais perdas.</a></a></a>
<a name="12">[12]</a> <a href="#12" id=12><a name="7">[7]</a> <a href="#7" id=7></body></a></a>
<a name="13">[13]</a> <a href="#13" id=13><a name="8">[8]</a> <a href="#8" id=8></html></a></a>
<a name="14">[14]</a> <a href="#14" id=14></body></a>
<a name="15">[15]</a> <a href="#15" id=15></html></a>
</body>
</html>