<html>
<head>
<title>dummy title</title>
</head>
<body bgcolor="white">
<a name="1">[1]</a> <a href="#1" id=1><html></a>
<a name="2">[2]</a> <a href="#2" id=2><head></a>
<a name="3">[3]</a> <a href="#3" id=3><title>dummy title</title></a>
<a name="4">[4]</a> <a href="#4" id=4></head></a>
<a name="5">[5]</a> <a href="#5" id=5><body bgcolor="white"></a>
<a name="6">[6]</a> <a href="#6" id=6><a name="1">[1]</a> <a href="#1" id=1><html></a></a>
<a name="7">[7]</a> <a href="#7" id=7><a name="2">[2]</a> <a href="#2" id=2><head></a></a>
<a name="8">[8]</a> <a href="#8" id=8><a name="3">[3]</a> <a href="#3" id=3><title>dummy title</title></a></a>
<a name="9">[9]</a> <a href="#9" id=9><a name="4">[4]</a> <a href="#4" id=4></head></a></a>
<a name="10">[10]</a> <a href="#10" id=10><a name="5">[5]</a> <a href="#5" id=5><body bgcolor="white"></a></a>
<a name="11">[11]</a> <a href="#11" id=11><a name="6">[6]</a> <a href="#6" id=6><a name="1">[1]</a> <a href="#1" id=1>O premiê de Israel, Yitzhak Rabin, entrou em território jordaniano e depois navegou com o rei Hussein da Jordânia no iate real em águas territoriais de Israel. A abertura da fronteira consolidou o acordo de paz assinado por Rabin e Hussein em Washington no mês passado. Hussein, que atravessou o espaço aéreo e navegou em águas territoriais israelenses, disse pretender visitar santuários islâmicos de Jerusalém e Hebron, na faixa de Gaza. O secretário de Estado dos EUA, Warren Christopher, disse na abertura de fronteiras que Israel e Síria têm "uma longa distância a percorrer" para a paz. Christopher esteve negociando com sírios e israelenses e disse que Rabin e o presidente sírio, Hafez al Assad, "começaram a pavimentar a base para o progresso em direção à paz".</a></a></a>
<a name="12">[12]</a> <a href="#12" id=12><a name="7">[7]</a> <a href="#7" id=7></body></a></a>
<a name="13">[13]</a> <a href="#13" id=13><a name="8">[8]</a> <a href="#8" id=8></html></a></a>
<a name="14">[14]</a> <a href="#14" id=14></body></a>
<a name="15">[15]</a> <a href="#15" id=15></html></a>
</body>
</html>