<html>
<head>
<title>dummy title</title>
</head>
<body bgcolor="white">
<a name="1">[1]</a> <a href="#1" id=1><html></a>
<a name="2">[2]</a> <a href="#2" id=2><head></a>
<a name="3">[3]</a> <a href="#3" id=3><title>dummy title</title></a>
<a name="4">[4]</a> <a href="#4" id=4></head></a>
<a name="5">[5]</a> <a href="#5" id=5><body bgcolor="white"></a>
<a name="6">[6]</a> <a href="#6" id=6><a name="1">[1]</a> <a href="#1" id=1><html></a></a>
<a name="7">[7]</a> <a href="#7" id=7><a name="2">[2]</a> <a href="#2" id=2><head></a></a>
<a name="8">[8]</a> <a href="#8" id=8><a name="3">[3]</a> <a href="#3" id=3><title>dummy title</title></a></a>
<a name="9">[9]</a> <a href="#9" id=9><a name="4">[4]</a> <a href="#4" id=4></head></a></a>
<a name="10">[10]</a> <a href="#10" id=10><a name="5">[5]</a> <a href="#5" id=5><body bgcolor="white"></a></a>
<a name="11">[11]</a> <a href="#11" id=11><a name="6">[6]</a> <a href="#6" id=6><a name="1">[1]</a> <a href="#1" id=1>Em 1990, os gastos em saúde alcançaram a fantástica cifra de US$ 666 bilhões. A continuar nessa marcha, dentro de meio século o PIB todo será gasto com saúde. Nos Estados Unidos, o tratamento que simplesmente prolonga a vida de um aidético custa US$ 85 mil. Só a Aids consumiu US$ 12 bilhões em 1992 ou seja, 50% mais do que o Brasil gastou com todas as doenças. A hipertensão, na Inglaterra, só passa a merecer a atenção dos médicos quando a mínima chega a dez sabendo-se que o limite é nove. A conclusão a que se chega a partir de todos esses números é que, mesmo onde há muitos recursos, a obediência à regra da prioridade é essencial. Se, na Inglaterra, com tantos recursos, obedecem-se as prioridades, o que dizer do Brasil que paga US$ 3,50 por uma diária de hospital? Não é à toa que diminui a cada dia o número de hospitais conveniados com o Inamps. Esse foi o caso lamentável do Hospital Humberto Primo em São Paulo, há longos anos mantido pela operosa colônia italiana e que, em 1992, se viu na contingência de fechar as suas portas. Tenho certeza de que a garra e a criatividade dos italianos farão reabrir aquele importante hospital. Mas isso não dispensa o alerta para que o governo ponha suas contas em ordem para pagar uma diária decente e, sobretudo, pagar em dia. A saúde é como o cometa: o tema aparece a cada quatro anos na boca de todos os candidatos.</a></a></a>
<a name="12">[12]</a> <a href="#12" id=12><a name="7">[7]</a> <a href="#7" id=7></body></a></a>
<a name="13">[13]</a> <a href="#13" id=13><a name="8">[8]</a> <a href="#8" id=8></html></a></a>
<a name="14">[14]</a> <a href="#14" id=14></body></a>
<a name="15">[15]</a> <a href="#15" id=15></html></a>
</body>
</html>