<html>
<head>
<title>dummy title</title>
</head>
<body bgcolor="white">
<a name="1">[1]</a> <a href="#1" id=1><html></a>
<a name="2">[2]</a> <a href="#2" id=2><head></a>
<a name="3">[3]</a> <a href="#3" id=3><title>dummy title</title></a>
<a name="4">[4]</a> <a href="#4" id=4></head></a>
<a name="5">[5]</a> <a href="#5" id=5><body bgcolor="white"></a>
<a name="6">[6]</a> <a href="#6" id=6><a name="1">[1]</a> <a href="#1" id=1><html></a></a>
<a name="7">[7]</a> <a href="#7" id=7><a name="2">[2]</a> <a href="#2" id=2><head></a></a>
<a name="8">[8]</a> <a href="#8" id=8><a name="3">[3]</a> <a href="#3" id=3><title>dummy title</title></a></a>
<a name="9">[9]</a> <a href="#9" id=9><a name="4">[4]</a> <a href="#4" id=4></head></a></a>
<a name="10">[10]</a> <a href="#10" id=10><a name="5">[5]</a> <a href="#5" id=5><body bgcolor="white"></a></a>
<a name="11">[11]</a> <a href="#11" id=11><a name="6">[6]</a> <a href="#6" id=6><a name="1">[1]</a> <a href="#1" id=1>Ainda assim, o acordo ratificado anteontem pelos membros do Mercosul, que cria um espaço econômico de 200 milhões de habitantes e um produto total de quase US$ 800 bilhões, constitui um marco histórico para as economias envolvidas e aponta para um processo ainda mais profundo de integração. O acerto confirmado em Buenos Aires pelos presidentes de Brasil, Argentina, Uruguai e Paraguai estabelece uma união aduaneira a partir de 1º de janeiro do ano que vem. Isso significa, não só que mercadorias poderão circular no Mercosul sem taxas alfandegárias, como também que produtos importados de outros países terão, em tese, tarifas iguais para todo o bloco. Entre 1990 e 1994, as exportações brasileiras para a Argentina saltaram 390%, tornando-a o segundo maior importador de bens nacionais atrás só dos EUA isso, é certo, também com o auxílio da defasagem cambial interna argentina. Uma importante mostra de realismo foi dada pelos participantes da cúpula ao ressaltar a importância de buscar acordos do Mercosul com a União Européia e, posteriormente, com o Nafta. Afinal, apesar de tudo, é inegável que é na inserção nos grandes fluxos da economia mundial que os países membros, e o Brasil especificamente, mais têm a ganhar.</a></a></a>
<a name="12">[12]</a> <a href="#12" id=12><a name="7">[7]</a> <a href="#7" id=7></body></a></a>
<a name="13">[13]</a> <a href="#13" id=13><a name="8">[8]</a> <a href="#8" id=8></html></a></a>
<a name="14">[14]</a> <a href="#14" id=14></body></a>
<a name="15">[15]</a> <a href="#15" id=15></html></a>
</body>
</html>