<html>
<head>
<title>dummy title</title>
</head>
<body bgcolor="white">
<a name="1">[1]</a> <a href="#1" id=1><html></a>
<a name="2">[2]</a> <a href="#2" id=2><head></a>
<a name="3">[3]</a> <a href="#3" id=3><title>dummy title</title></a>
<a name="4">[4]</a> <a href="#4" id=4></head></a>
<a name="5">[5]</a> <a href="#5" id=5><body bgcolor="white"></a>
<a name="6">[6]</a> <a href="#6" id=6><a name="1">[1]</a> <a href="#1" id=1><html></a></a>
<a name="7">[7]</a> <a href="#7" id=7><a name="2">[2]</a> <a href="#2" id=2><head></a></a>
<a name="8">[8]</a> <a href="#8" id=8><a name="3">[3]</a> <a href="#3" id=3><title>dummy title</title></a></a>
<a name="9">[9]</a> <a href="#9" id=9><a name="4">[4]</a> <a href="#4" id=4></head></a></a>
<a name="10">[10]</a> <a href="#10" id=10><a name="5">[5]</a> <a href="#5" id=5><body bgcolor="white"></a></a>
<a name="11">[11]</a> <a href="#11" id=11><a name="6">[6]</a> <a href="#6" id=6><a name="1">[1]</a> <a href="#1" id=1>O compromisso do cristão é de amar a Deus sobre todas as coisas e ao próximo como Jesus nos ensinou. Através das semanas da quaresma, viemos caminhando até a Páscoa, a festa da vitória de Cristo sobre o pecado e a morte. Nada pode destruir a confiança, que Deus infunde em nosso íntimo, de que nos destina à felicidade na comunhão plena com ele e os irmãos. A esperança começa agora, em nossa vida e na missão de comunicar aos outros a vitória de Cristo. Assim, na base da justiça social deve estar o amor que leva ao apreço e respeito a toda pessoa humana, sem discriminações de classe, raça e origem. O cristão, a exemplo de Jesus, precisa ainda assegurar a solicitude pelos mais carentes, no anseio de a eles oferecer condições dignas de vida, reduzindo as distâncias que separam ricos e pobres, até chegarmos a uma vivência verdadeira da fraternidade. À luz da Páscoa de Jesus, o compromisso político do cristão expressa nosso dever para com um novo tipo de sociedade solidária, empenhados em promover a felicidade de cada irmão, sem excluir ninguém. A ressurreição de Cristo ilumina toda nossa vida e até o discernimento sobre nossa participação política.</a></a></a>
<a name="12">[12]</a> <a href="#12" id=12><a name="7">[7]</a> <a href="#7" id=7></body></a></a>
<a name="13">[13]</a> <a href="#13" id=13><a name="8">[8]</a> <a href="#8" id=8></html></a></a>
<a name="14">[14]</a> <a href="#14" id=14></body></a>
<a name="15">[15]</a> <a href="#15" id=15></html></a>
</body>
</html>