<html>
<head>
<title>dummy title</title>
</head>
<body bgcolor="white">
<a name="1">[1]</a> <a href="#1" id=1><html></a>
<a name="2">[2]</a> <a href="#2" id=2><head></a>
<a name="3">[3]</a> <a href="#3" id=3><title>dummy title</title></a>
<a name="4">[4]</a> <a href="#4" id=4></head></a>
<a name="5">[5]</a> <a href="#5" id=5><body bgcolor="white"></a>
<a name="6">[6]</a> <a href="#6" id=6><a name="1">[1]</a> <a href="#1" id=1><html></a></a>
<a name="7">[7]</a> <a href="#7" id=7><a name="2">[2]</a> <a href="#2" id=2><head></a></a>
<a name="8">[8]</a> <a href="#8" id=8><a name="3">[3]</a> <a href="#3" id=3><title>dummy title</title></a></a>
<a name="9">[9]</a> <a href="#9" id=9><a name="4">[4]</a> <a href="#4" id=4></head></a></a>
<a name="10">[10]</a> <a href="#10" id=10><a name="5">[5]</a> <a href="#5" id=5><body bgcolor="white"></a></a>
<a name="11">[11]</a> <a href="#11" id=11><a name="6">[6]</a> <a href="#6" id=6><a name="1">[1]</a> <a href="#1" id=1>BRASÍLIA - Os sucessivos atrasos na votação da reforma da Previdência levaram ontem o presidente da Câmara, Luís Eduardo Magalhães à irritação: ele decidiu pular a etapa da Comissão Especial e remeteu a emenda para ser debatida no plenário. O cronograma prevê a leitura do relatório de Euler na terça-feira, para que o plenário possa discuti-lo e votá-lo em primeiro turno já no início de março. Ontem mesmo, o presidente Fernando Henrique Cardoso fez questão de deixar isto claro, ao receber no Palácio do Planalto os presidentes da Força Sindical, Luís Antônio de Medeiros, e da Central Única dos Trabalhadores, Vicente Paulo da Silva, o Vicentinho. No telefonema, o presidente da Câmara contou que a situação estava insustentável e que a Casa corria o risco de sair do processo desmoralizada, por criar uma confusão depois que o governo e as centrais sindicais tinham chegado a um acordo. O presidente da Câmara não fez mais do que cumprir a ameaça que havia feito, há tempos, a Jair e Euler. "O Luís Eduardo assumiu o comando do processo. Está restabelecida a autoridade da Câmara", comemorou o vice-líder do governo, Arnaldo Madeira.</a></a></a>
<a name="12">[12]</a> <a href="#12" id=12><a name="7">[7]</a> <a href="#7" id=7></body></a></a>
<a name="13">[13]</a> <a href="#13" id=13><a name="8">[8]</a> <a href="#8" id=8></html></a></a>
<a name="14">[14]</a> <a href="#14" id=14></body></a>
<a name="15">[15]</a> <a href="#15" id=15></html></a>
</body>
</html>